Miscellaneous - Artists in the USA
…
artists <- readr::read_csv("https://raw.githubusercontent.com/rfordatascience/tidytuesday/master/data/2022/2022-09-27/artists.csv")

Rows: 3380 Columns: 7
── Column specification ────────────────────────────────────────────────────────
Delimiter: ","
chr (3): state, race, type
dbl (4): all_workers_n, artists_n, artists_share, location_quotient

ℹ Use `spec()` to retrieve the full column specification for this data.
ℹ Specify the column types or set `show_col_types = FALSE` to quiet this message.

artists

# A tibble: 3,380 × 7
   state                race     type       all_worke…¹ artis…² artist…³ locat…⁴
   <chr>                <chr>    <chr>            <dbl>   <dbl>    <dbl>   <dbl>
 1 Alabama              Hispanic Architects       88165      45  5.10e-4   0.875
 2 Alaska               Hispanic Architects       26875      15  5.58e-4   0.957
 3 Arizona              Hispanic Architects     1033370     270  2.61e-4   0.448
 4 Arkansas             Hispanic Architects      101405      NA NA        NA    
 5 California           Hispanic Architects     7470730    3870  5.18e-4   0.888
 6 Colorado             Hispanic Architects      594525     200  3.36e-4   0.577
 7 Connecticut          Hispanic Architects      288845     150  5.19e-4   0.891
 8 Delaware             Hispanic Architects       41365       0 NA        NA    
 9 District of Columbia Hispanic Architects       44885     185  4.12e-3   7.07 
10 Florida              Hispanic Architects     2752995    2900  1.05e-3   1.81 
# … with 3,370 more rows, and abbreviated variable names ¹​all_workers_n,
#   ²​artists_n, ³​artists_share, ⁴​location_quotient
…
