Miscellaneous - K-mer counts on genomes
…
Importing & cleaning

# posts/2021-01-25-Kmer-analysis/

files  <- dir_ls("data/Kmers")

dataset  <- files |>
  map_df(read_csv)

dataset

# A tibble: 20,709,376 × 3
    ...1 kmer      kmer_value
   <dbl> <chr>          <dbl>
 1     0 AAAAAAAAA          5
 2     1 AAAAAAAAC         21
 3     2 AAAAAAAAT         17
 4     3 AAAAAAAAG         17
 5     4 AAAAAAACA         23
 6     5 AAAAAAACC         44
 7     6 AAAAAAACT         15
 8     7 AAAAAAACG         29
 9     8 AAAAAAATA         26
10     9 AAAAAAATC         40
# … with 20,709,366 more rows
…
